{"content":[{"id":91,"teamId":5,"userId":67,"email":"{debug_user1@gmail.com}","userDisplayName":"","permissionList":["VIEW","EDIT","MANAGE_USERS_IN_ORG","ADMIN","RUN"],"invitationStatus":"WAITING_FOR_ACCEPTANCE","inviteUrl":"/auth-srv/invite/UqdmAMWz75xvEMyW75Mn02koWNr5msWzvfIhXeMQpCeIzXtHUipgfgsdlBm_-sCfk2RTeSIxDIPJMeeJveSs14EdQKULQ-81n8L_Ke9nffA=","expiredAt":"2024-04-05T08:44:17.212Z","createAt":"2024-04-04T08:44:17.214Z","updatedAt":"2024-04-04T08:44:17.295Z"},{"id":93,"teamId":5,"userId":69,"email":"debug_dan1@group1.com","userDisplayName":"debug_dan","permissionList":["VIEW","EDIT","MANAGE_USERS_IN_ORG","ADMIN","RUN"],"invitationStatus":"ACCEPTED","inviteUrl":null,"expiredAt":null,"createAt":"2024-04-04T09:07:36.586Z","updatedAt":"2024-04-04T09:08:18.680Z"},{"id":51,"teamId":5,"userId":30,"email":"oleg@gmail.com","userDisplayName":"","permissionList":["EDIT","VIEW","MANAGE_USERS_IN_ORG","ADMIN","RUN"],"invitationStatus":"ACCEPTED","inviteUrl":null,"expiredAt":null,"createAt":"2024-04-02T12:32:16.374Z","updatedAt":"2024-04-02T12:33:35.996Z"},{"id":42,"teamId":5,"userId":24,"email":"tuble805@mail.ru","userDisplayName":"","permissionList":["EDIT","VIEW","MANAGE_USERS_IN_ORG","ADMIN","RUN"],"invitationStatus":"ACCEPTED","inviteUrl":null,"expiredAt":null,"createAt":"2024-04-02T12:05:32.830Z","updatedAt":"2024-04-02T12:05:39.814Z"},{"id":19,"teamId":5,"userId":1,"email":"admin@boomq.io","userDisplayName":null,"permissionList":["ADMIN"],"invitationStatus":"ACCEPTED","inviteUrl":null,"expiredAt":null,"createAt":"2024-04-02T09:43:04.309Z","updatedAt":"2024-04-02T09:43:04.309Z"},{"id":30,"teamId":5,"userId":18,"email":"p.a.shutov@yandex.ru","userDisplayName":"","permissionList":["EDIT","VIEW","MANAGE_USERS_IN_ORG","ADMIN","RUN"],"invitationStatus":"ACCEPTED","inviteUrl":null,"expiredAt":null,"createAt":"2024-04-02T10:10:32.536Z","updatedAt":"2024-04-02T10:10:49.523Z"},{"id":57,"teamId":5,"userId":36,"email":"debug_666@debag.com","userDisplayName":"","permissionList":["EDIT","VIEW","MANAGE_USERS_IN_ORG","ADMIN","RUN"],"invitationStatus":"ACCEPTED","inviteUrl":null,"expiredAt":null,"createAt":"2024-04-02T13:55:38.409Z","updatedAt":"2024-04-02T13:55:49.976Z"}],"pageable":{"sort":{"unsorted":true,"sorted":false,"empty":true},"pageNumber":0,"pageSize":7,"offset":0,"unpaged":false,"paged":true},"totalElements":70,"totalPages":10,"last":false,"first":true,"sort":{"unsorted":true,"sorted":false,"empty":true},"numberOfElements":7,"size":7,"number":0,"empty":false}