{"content":[{"id":55,"teamId":5,"userId":34,"email":"debug_ilya1@group1.com","userDisplayName":"","permissionList":["EDIT","VIEW","MANAGE_USERS_IN_ORG","ADMIN","RUN"],"invitationStatus":"ACCEPTED","inviteUrl":null,"expiredAt":null,"createAt":"2024-04-02T13:08:44.196Z","updatedAt":"2024-04-02T13:10:43.224Z"},{"id":64,"teamId":5,"userId":40,"email":"debug_670@example.com","userDisplayName":"","permissionList":["EDIT","VIEW","MANAGE_USERS_IN_ORG","ADMIN","RUN"],"invitationStatus":"ACCEPTED","inviteUrl":null,"expiredAt":null,"createAt":"2024-04-03T09:56:13.689Z","updatedAt":"2024-04-03T09:57:14.450Z"},{"id":58,"teamId":5,"userId":37,"email":"debug667@debug.com","userDisplayName":"","permissionList":["EDIT","VIEW","MANAGE_USERS_IN_ORG","ADMIN","RUN"],"invitationStatus":"ACCEPTED","inviteUrl":null,"expiredAt":null,"createAt":"2024-04-02T14:09:20.439Z","updatedAt":"2024-04-02T14:10:38.856Z"},{"id":56,"teamId":5,"userId":35,"email":"debug_user1@gmail.com","userDisplayName":"","permissionList":["EDIT","VIEW","MANAGE_USERS_IN_ORG","ADMIN","RUN"],"invitationStatus":"ACCEPTED","inviteUrl":null,"expiredAt":null,"createAt":"2024-04-02T13:11:44.563Z","updatedAt":"2024-04-02T13:15:27.249Z"},{"id":63,"teamId":5,"userId":39,"email":"debug_668@example.com","userDisplayName":"","permissionList":["EDIT","VIEW","MANAGE_USERS_IN_ORG","ADMIN","RUN"],"invitationStatus":"WAITING_FOR_ACCEPTANCE","inviteUrl":"/auth-srv/invite/X1sIWw4rN71zPZ_iVoyAk8i0vL742CTfQqJeSnB96JF_vcKE6zsNfTSQ6kXbWcRgV62NzblVqjH-VkEZ5u70MChTFlF0GmoVvy837yQ46FU=","expiredAt":"2024-04-04T08:32:01.199Z","createAt":"2024-04-03T08:32:01.200Z","updatedAt":"2024-04-03T08:32:01.324Z"},{"id":301,"teamId":5,"userId":250,"email":"debug_ilya12@group1.com","userDisplayName":"","permissionList":["VIEW","EDIT","MANAGE_USERS_IN_ORG","ADMIN","RUN"],"invitationStatus":"ACCEPTED","inviteUrl":null,"expiredAt":null,"createAt":"2024-04-04T12:06:05.469Z","updatedAt":"2024-04-04T12:06:06.028Z"},{"id":122,"teamId":5,"userId":15,"email":"ializade7991@gmail.com","userDisplayName":"","permissionList":["VIEW","EDIT","MANAGE_USERS_IN_ORG","ADMIN","RUN"],"invitationStatus":"ACCEPTED","inviteUrl":null,"expiredAt":null,"createAt":"2024-04-04T09:57:50.362Z","updatedAt":"2024-04-04T09:57:50.362Z"}],"pageable":{"sort":{"unsorted":true,"sorted":false,"empty":true},"pageNumber":1,"pageSize":7,"offset":7,"unpaged":false,"paged":true},"totalElements":71,"totalPages":11,"last":false,"first":false,"sort":{"unsorted":true,"sorted":false,"empty":true},"numberOfElements":7,"size":7,"number":1,"empty":false}