{"content":[{"id":51,"teamId":5,"userId":30,"email":"oleg@gmail.com","userDisplayName":"","permissionList":["EDIT","VIEW","MANAGE_USERS_IN_ORG","ADMIN","RUN"],"invitationStatus":"ACCEPTED","inviteUrl":null,"expiredAt":null,"createAt":"2024-04-02T12:32:16.374Z","updatedAt":"2024-04-02T12:33:35.996Z"},{"id":25,"teamId":5,"userId":15,"email":"ializade7991@gmail.com","userDisplayName":"","permissionList":["EDIT","VIEW","MANAGE_USERS_IN_ORG","ADMIN","RUN"],"invitationStatus":"ACCEPTED","inviteUrl":null,"expiredAt":null,"createAt":"2024-04-02T09:48:51.666Z","updatedAt":"2024-04-02T09:49:08.063Z"},{"id":42,"teamId":5,"userId":24,"email":"tuble805@mail.ru","userDisplayName":"","permissionList":["EDIT","VIEW","MANAGE_USERS_IN_ORG","ADMIN","RUN"],"invitationStatus":"ACCEPTED","inviteUrl":null,"expiredAt":null,"createAt":"2024-04-02T12:05:32.830Z","updatedAt":"2024-04-02T12:05:39.814Z"},{"id":19,"teamId":5,"userId":1,"email":"admin@boomq.io","userDisplayName":null,"permissionList":["ADMIN"],"invitationStatus":"ACCEPTED","inviteUrl":null,"expiredAt":null,"createAt":"2024-04-02T09:43:04.309Z","updatedAt":"2024-04-02T09:43:04.309Z"},{"id":30,"teamId":5,"userId":18,"email":"p.a.shutov@yandex.ru","userDisplayName":"","permissionList":["EDIT","VIEW","MANAGE_USERS_IN_ORG","ADMIN","RUN"],"invitationStatus":"ACCEPTED","inviteUrl":null,"expiredAt":null,"createAt":"2024-04-02T10:10:32.536Z","updatedAt":"2024-04-02T10:10:49.523Z"},{"id":57,"teamId":5,"userId":36,"email":"debug_666@debag.com","userDisplayName":"","permissionList":["EDIT","VIEW","MANAGE_USERS_IN_ORG","ADMIN","RUN"],"invitationStatus":"ACCEPTED","inviteUrl":null,"expiredAt":null,"createAt":"2024-04-02T13:55:38.409Z","updatedAt":"2024-04-02T13:55:49.976Z"},{"id":55,"teamId":5,"userId":34,"email":"debug_ilya1@group1.com","userDisplayName":"","permissionList":["EDIT","VIEW","MANAGE_USERS_IN_ORG","ADMIN","RUN"],"invitationStatus":"ACCEPTED","inviteUrl":null,"expiredAt":null,"createAt":"2024-04-02T13:08:44.196Z","updatedAt":"2024-04-02T13:10:43.224Z"}],"pageable":{"sort":{"unsorted":true,"sorted":false,"empty":true},"pageNumber":0,"pageSize":7,"offset":0,"unpaged":false,"paged":true},"totalElements":12,"totalPages":2,"last":false,"first":true,"sort":{"unsorted":true,"sorted":false,"empty":true},"numberOfElements":7,"size":7,"number":0,"empty":false}